{
    "commands": [
        {
            "name": "party",
            "location": [
                "Edinburgh",
                "Vancouver"
            ],
            "steps": [
                {
                    "step": "red",
                    "interval": 1
                },
                {
                    "step": "green",
                    "interval": 1
                },
                {
                    "step": "off",
                    "interval": 3
                },
                {
                    "step": "red",
                    "interval": 1
                },
                {
                    "step": "green",
                    "interval": 1
                },
                {
                    "step": "pink",
                    "interval": 2
                },
                {
                    "step": "blue",
                    "interval": 3
                },
                {
                    "step": "pink",
                    "interval": 1
                },
                {
                    "step": "red",
                    "interval": 1
                },
                {
                    "step": "pink",
                    "interval": 2
                }
            ],
            "min_interval": 1,
            "last_used": null

        },
        {
            "name": "red",
            "location": [
                "Edinburgh",
                "Vancouver"
            ],
            "steps": [
                {
                    "step": "red",
                    "interval": 1
                }
            ],
            "min_interval": 1,
            "last_used": null
        },
        {
            "name": "off",
            "location": [
                "Edinburgh",
                "Vancouver"
            ],
            "steps": [
                {
                    "step": "off",
                    "interval": 1
                }
            ],
            "min_interval": 0,
            "last_used": null
        },
        {
            "name": "on",
            "location": [
                "Edinburgh",
                "Vancouver"
            ],
            "steps": [
                {
                    "step": "normal",
                    "interval": 1
                }
            ],
            "min_interval": 0,
            "last_used": null
        },
        {
            "name": "pink",
            "location": [
                "Edinburgh",
                "Vancouver"
            ],
            "steps": [
                {
                    "step": "pink",
                    "interval": 1
                }
            ],
            "min_interval": 2,
            "last_used": null
        },
         {
            "name": "blue",
            "location": [
                "Edinburgh",
                "Vancouver"
            ],
            "steps": [
                {
                    "step": "blue",
                    "interval": 1
                }
            ],
            "min_interval": 2,
            "last_used": null
        },
         {
            "name": "green",
            "location": [
                "Edinburgh",
                "Vancouver"
            ],
            "steps": [
                {
                    "step": "green",
                    "interval": 3
                }
            ],
            "min_interval": 2,
            "last_used": null
        },
         {
            "name": "p1",
            "location": [
                "Edinburgh",
                "Vancouver"
            ],
            "steps": [
                {
                    "step": "red",
                    "interval": 0.5
                },
                {
                    "step" : "normal",
                    "interval" : 0.5
                },
                 {
                    "step": "red",
                    "interval": 0.5
                },
                {
                    "step" : "normal",
                    "interval" : 0.5
                },
                 {
                    "step": "red",
                    "interval": 0.5
                },
                {
                    "step" : "normal",
                    "interval" : 0.5
                },
                 {
                    "step": "red",
                    "interval": 0.5
                },
                {
                    "step" : "normal",
                    "interval" : 0.5
                },
                 {
                    "step": "red",
                    "interval": 0.5
                },
                {
                    "step" : "normal",
                    "interval" : 0.5
                },
                 {
                    "step": "red",
                    "interval": 0.5
                },
                {
                    "step" : "normal",
                    "interval" : 0.5
                },
                 {
                    "step": "red",
                    "interval": 5
                },
                {
                    "step" : "on",
                    "interval" : 0.5
                }
            ],
            "min_interval": 0,
            "last_used": null
        },
        {
            "name": "cleared",
            "location": [
                "Edinburgh",
                "Vancouver"
            ],
            "steps": [
                {
                    "step": "green",
                    "interval": 0.5
                },
                {
                    "step": "normal",
                    "interval": 0.5
                },
                {
                    "step": "green",
                  "interval": 0.5
                },
                {
                    "step": "normal",
                    "interval": 0.5
                },
                {
                    "step": "green",
                    "interval": 0.5
                },{
                    "step": "green",
                    "interval": 0.5
                },
                {
                    "step": "normal",
                    "interval": 0.5
                },
                {
                    "step": "green",
                  "interval": 0.5
                },
                {
                    "step": "normal",
                    "interval": 0.5
                },
                {
                    "step": "green",
                    "interval": 0.5
                },
                {
                    "step" : "normal",
                    "interval" : 5
                },
                {
                    "step": "on",
                    "interval": 0
                }
            ],
            "min_interval": 2,
            "last_used": null
        }

    ]
}
